---
source: src/cmd/gen.rs
expression: s
---
xmark = @@XMARK_BASE@@/target/debug/deps/@@XMARK_BIN@@
xmark_src = @@DOT_PATH_TO_ROOT@@..@@XMARK_BASE@@
page_tpl = $xmark_src/www/page.html
build_dir = _build
summary_dir = $build_dir/summary
out_dir = $build_dir/out
book_base = corpus/rustc-dev-guide/src
summary = $book_base/SUMMARY.md


rule pandoc
  command = pandoc $in -o $out --toc --metadata title="$title" --template $page_tpl --css /xmark.css --include-before-body $page_ltoc
  description = PANDOC $in

rule ltoc
  command = $xmark internal ltoc --summary $summary --input $in --out $out
  description = LTOC   $in

rule cp
  command = cp $in $out

rule sass
  command = sass $in $out


build _build/out/xmark.css: sass $xmark_src/www/xmark.scss
build _build/out/xmark.js: cp $xmark_src/www/xmark.js


build $summary_dir/./about-this-guide.html: ltoc $book_base/./about-this-guide.md | $summary $xmark
build $out_dir/./about-this-guide.html: pandoc $book_base/./about-this-guide.md | $page_tpl $summary_dir/./about-this-guide.html
  page_ltoc = $summary_dir/./about-this-guide.html
  title = About this guide

build $summary_dir/./getting-started.html: ltoc $book_base/./getting-started.md | $summary $xmark
build $out_dir/./getting-started.html: pandoc $book_base/./getting-started.md | $page_tpl $summary_dir/./getting-started.html
  page_ltoc = $summary_dir/./getting-started.html
  title = Getting Started

build $summary_dir/./building/how-to-build-and-run.html: ltoc $book_base/./building/how-to-build-and-run.md | $summary $xmark
build $out_dir/./building/how-to-build-and-run.html: pandoc $book_base/./building/how-to-build-and-run.md | $page_tpl $summary_dir/./building/how-to-build-and-run.html
  page_ltoc = $summary_dir/./building/how-to-build-and-run.html
  title = How to Build and Run the Compiler

build $summary_dir/./building/prerequisites.html: ltoc $book_base/./building/prerequisites.md | $summary $xmark
build $out_dir/./building/prerequisites.html: pandoc $book_base/./building/prerequisites.md | $page_tpl $summary_dir/./building/prerequisites.html
  page_ltoc = $summary_dir/./building/prerequisites.html
  title = Prerequisites

build $summary_dir/./building/suggested.html: ltoc $book_base/./building/suggested.md | $summary $xmark
build $out_dir/./building/suggested.html: pandoc $book_base/./building/suggested.md | $page_tpl $summary_dir/./building/suggested.html
  page_ltoc = $summary_dir/./building/suggested.html
  title = Suggested Workflows

build $summary_dir/./building/build-install-distribution-artifacts.html: ltoc $book_base/./building/build-install-distribution-artifacts.md | $summary $xmark
build $out_dir/./building/build-install-distribution-artifacts.html: pandoc $book_base/./building/build-install-distribution-artifacts.md | $page_tpl $summary_dir/./building/build-install-distribution-artifacts.html
  page_ltoc = $summary_dir/./building/build-install-distribution-artifacts.html
  title = Distribution artifacts

build $summary_dir/./building/compiler-documenting.html: ltoc $book_base/./building/compiler-documenting.md | $summary $xmark
build $out_dir/./building/compiler-documenting.html: pandoc $book_base/./building/compiler-documenting.md | $page_tpl $summary_dir/./building/compiler-documenting.html
  page_ltoc = $summary_dir/./building/compiler-documenting.html
  title = Documenting Compiler

build $summary_dir/./rustdoc.html: ltoc $book_base/./rustdoc.md | $summary $xmark
build $out_dir/./rustdoc.html: pandoc $book_base/./rustdoc.md | $page_tpl $summary_dir/./rustdoc.html
  page_ltoc = $summary_dir/./rustdoc.html
  title = Rustdoc

build $summary_dir/./building/ctags.html: ltoc $book_base/./building/ctags.md | $summary $xmark
build $out_dir/./building/ctags.html: pandoc $book_base/./building/ctags.md | $page_tpl $summary_dir/./building/ctags.html
  page_ltoc = $summary_dir/./building/ctags.html
  title = ctags

build $summary_dir/./building/new-target.html: ltoc $book_base/./building/new-target.md | $summary $xmark
build $out_dir/./building/new-target.html: pandoc $book_base/./building/new-target.md | $page_tpl $summary_dir/./building/new-target.html
  page_ltoc = $summary_dir/./building/new-target.html
  title = Adding a new target

build $summary_dir/./tests/intro.html: ltoc $book_base/./tests/intro.md | $summary $xmark
build $out_dir/./tests/intro.html: pandoc $book_base/./tests/intro.md | $page_tpl $summary_dir/./tests/intro.html
  page_ltoc = $summary_dir/./tests/intro.html
  title = The compiler testing framework

build $summary_dir/./tests/running.html: ltoc $book_base/./tests/running.md | $summary $xmark
build $out_dir/./tests/running.html: pandoc $book_base/./tests/running.md | $page_tpl $summary_dir/./tests/running.html
  page_ltoc = $summary_dir/./tests/running.html
  title = Running tests

build $summary_dir/./tests/adding.html: ltoc $book_base/./tests/adding.md | $summary $xmark
build $out_dir/./tests/adding.html: pandoc $book_base/./tests/adding.md | $page_tpl $summary_dir/./tests/adding.html
  page_ltoc = $summary_dir/./tests/adding.html
  title = Adding new tests

build $summary_dir/./compiletest.html: ltoc $book_base/./compiletest.md | $summary $xmark
build $out_dir/./compiletest.html: pandoc $book_base/./compiletest.md | $page_tpl $summary_dir/./compiletest.html
  page_ltoc = $summary_dir/./compiletest.html
  title = Using compiletest commands to control test execution

build $summary_dir/./compiler-debugging.html: ltoc $book_base/./compiler-debugging.md | $summary $xmark
build $out_dir/./compiler-debugging.html: pandoc $book_base/./compiler-debugging.md | $page_tpl $summary_dir/./compiler-debugging.html
  page_ltoc = $summary_dir/./compiler-debugging.html
  title = Debugging the Compiler

build $summary_dir/./profiling.html: ltoc $book_base/./profiling.md | $summary $xmark
build $out_dir/./profiling.html: pandoc $book_base/./profiling.md | $page_tpl $summary_dir/./profiling.html
  page_ltoc = $summary_dir/./profiling.html
  title = Profiling the compiler

build $summary_dir/./profiling/with_perf.html: ltoc $book_base/./profiling/with_perf.md | $summary $xmark
build $out_dir/./profiling/with_perf.html: pandoc $book_base/./profiling/with_perf.md | $page_tpl $summary_dir/./profiling/with_perf.html
  page_ltoc = $summary_dir/./profiling/with_perf.html
  title = with the linux perf tool

build $summary_dir/./crates-io.html: ltoc $book_base/./crates-io.md | $summary $xmark
build $out_dir/./crates-io.html: pandoc $book_base/./crates-io.md | $page_tpl $summary_dir/./crates-io.html
  page_ltoc = $summary_dir/./crates-io.html
  title = crates.io Dependencies

build $summary_dir/./contributing.html: ltoc $book_base/./contributing.md | $summary $xmark
build $out_dir/./contributing.html: pandoc $book_base/./contributing.md | $page_tpl $summary_dir/./contributing.html
  page_ltoc = $summary_dir/./contributing.html
  title = Introduction

build $summary_dir/./compiler-team.html: ltoc $book_base/./compiler-team.md | $summary $xmark
build $out_dir/./compiler-team.html: pandoc $book_base/./compiler-team.md | $page_tpl $summary_dir/./compiler-team.html
  page_ltoc = $summary_dir/./compiler-team.html
  title = About the compiler team

build $summary_dir/./git.html: ltoc $book_base/./git.md | $summary $xmark
build $out_dir/./git.html: pandoc $book_base/./git.md | $page_tpl $summary_dir/./git.html
  page_ltoc = $summary_dir/./git.html
  title = Using Git

build $summary_dir/./rustbot.html: ltoc $book_base/./rustbot.md | $summary $xmark
build $out_dir/./rustbot.html: pandoc $book_base/./rustbot.md | $page_tpl $summary_dir/./rustbot.html
  page_ltoc = $summary_dir/./rustbot.html
  title = Mastering @rustbot

build $summary_dir/./walkthrough.html: ltoc $book_base/./walkthrough.md | $summary $xmark
build $out_dir/./walkthrough.html: pandoc $book_base/./walkthrough.md | $page_tpl $summary_dir/./walkthrough.html
  page_ltoc = $summary_dir/./walkthrough.html
  title = Walkthrough: a typical contribution

build $summary_dir/./bug-fix-procedure.html: ltoc $book_base/./bug-fix-procedure.md | $summary $xmark
build $out_dir/./bug-fix-procedure.html: pandoc $book_base/./bug-fix-procedure.md | $page_tpl $summary_dir/./bug-fix-procedure.html
  page_ltoc = $summary_dir/./bug-fix-procedure.html
  title = Bug Fix Procedure

build $summary_dir/./implementing_new_features.html: ltoc $book_base/./implementing_new_features.md | $summary $xmark
build $out_dir/./implementing_new_features.html: pandoc $book_base/./implementing_new_features.md | $page_tpl $summary_dir/./implementing_new_features.html
  page_ltoc = $summary_dir/./implementing_new_features.html
  title = Implementing new features

build $summary_dir/./stability.html: ltoc $book_base/./stability.md | $summary $xmark
build $out_dir/./stability.html: pandoc $book_base/./stability.md | $page_tpl $summary_dir/./stability.html
  page_ltoc = $summary_dir/./stability.html
  title = Stability attributes

build $summary_dir/./stabilization_guide.html: ltoc $book_base/./stabilization_guide.md | $summary $xmark
build $out_dir/./stabilization_guide.html: pandoc $book_base/./stabilization_guide.md | $page_tpl $summary_dir/./stabilization_guide.html
  page_ltoc = $summary_dir/./stabilization_guide.html
  title = Stabilizing Features

build $summary_dir/./feature-gates.html: ltoc $book_base/./feature-gates.md | $summary $xmark
build $out_dir/./feature-gates.html: pandoc $book_base/./feature-gates.md | $page_tpl $summary_dir/./feature-gates.html
  page_ltoc = $summary_dir/./feature-gates.html
  title = Feature Gates

build $summary_dir/./conventions.html: ltoc $book_base/./conventions.md | $summary $xmark
build $out_dir/./conventions.html: pandoc $book_base/./conventions.md | $page_tpl $summary_dir/./conventions.html
  page_ltoc = $summary_dir/./conventions.html
  title = Coding conventions

build $summary_dir/notification-groups/about.html: ltoc $book_base/notification-groups/about.md | $summary $xmark
build $out_dir/notification-groups/about.html: pandoc $book_base/notification-groups/about.md | $page_tpl $summary_dir/notification-groups/about.html
  page_ltoc = $summary_dir/notification-groups/about.html
  title = Notification groups

build $summary_dir/notification-groups/arm.html: ltoc $book_base/notification-groups/arm.md | $summary $xmark
build $out_dir/notification-groups/arm.html: pandoc $book_base/notification-groups/arm.md | $page_tpl $summary_dir/notification-groups/arm.html
  page_ltoc = $summary_dir/notification-groups/arm.html
  title = ARM

build $summary_dir/notification-groups/cleanup-crew.html: ltoc $book_base/notification-groups/cleanup-crew.md | $summary $xmark
build $out_dir/notification-groups/cleanup-crew.html: pandoc $book_base/notification-groups/cleanup-crew.md | $page_tpl $summary_dir/notification-groups/cleanup-crew.html
  page_ltoc = $summary_dir/notification-groups/cleanup-crew.html
  title = Cleanup Crew

build $summary_dir/notification-groups/llvm.html: ltoc $book_base/notification-groups/llvm.md | $summary $xmark
build $out_dir/notification-groups/llvm.html: pandoc $book_base/notification-groups/llvm.md | $page_tpl $summary_dir/notification-groups/llvm.html
  page_ltoc = $summary_dir/notification-groups/llvm.html
  title = LLVM

build $summary_dir/notification-groups/risc-v.html: ltoc $book_base/notification-groups/risc-v.md | $summary $xmark
build $out_dir/notification-groups/risc-v.html: pandoc $book_base/notification-groups/risc-v.md | $page_tpl $summary_dir/notification-groups/risc-v.html
  page_ltoc = $summary_dir/notification-groups/risc-v.html
  title = RISC-V

build $summary_dir/notification-groups/windows.html: ltoc $book_base/notification-groups/windows.md | $summary $xmark
build $out_dir/notification-groups/windows.html: pandoc $book_base/notification-groups/windows.md | $page_tpl $summary_dir/notification-groups/windows.html
  page_ltoc = $summary_dir/notification-groups/windows.html
  title = Windows

build $summary_dir/./licenses.html: ltoc $book_base/./licenses.md | $summary $xmark
build $out_dir/./licenses.html: pandoc $book_base/./licenses.md | $page_tpl $summary_dir/./licenses.html
  page_ltoc = $summary_dir/./licenses.html
  title = Licenses

build $summary_dir/./part-2-intro.html: ltoc $book_base/./part-2-intro.md | $summary $xmark
build $out_dir/./part-2-intro.html: pandoc $book_base/./part-2-intro.md | $page_tpl $summary_dir/./part-2-intro.html
  page_ltoc = $summary_dir/./part-2-intro.html
  title = Prologue

build $summary_dir/./overview.html: ltoc $book_base/./overview.md | $summary $xmark
build $out_dir/./overview.html: pandoc $book_base/./overview.md | $page_tpl $summary_dir/./overview.html
  page_ltoc = $summary_dir/./overview.html
  title = Overview of the Compiler

build $summary_dir/./compiler-src.html: ltoc $book_base/./compiler-src.md | $summary $xmark
build $out_dir/./compiler-src.html: pandoc $book_base/./compiler-src.md | $page_tpl $summary_dir/./compiler-src.html
  page_ltoc = $summary_dir/./compiler-src.html
  title = The compiler source code

build $summary_dir/./building/bootstrapping.html: ltoc $book_base/./building/bootstrapping.md | $summary $xmark
build $out_dir/./building/bootstrapping.html: pandoc $book_base/./building/bootstrapping.md | $page_tpl $summary_dir/./building/bootstrapping.html
  page_ltoc = $summary_dir/./building/bootstrapping.html
  title = Bootstrapping

build $summary_dir/./query.html: ltoc $book_base/./query.md | $summary $xmark
build $out_dir/./query.html: pandoc $book_base/./query.md | $page_tpl $summary_dir/./query.html
  page_ltoc = $summary_dir/./query.html
  title = Queries: demand-driven compilation

build $summary_dir/./queries/query-evaluation-model-in-detail.html: ltoc $book_base/./queries/query-evaluation-model-in-detail.md | $summary $xmark
build $out_dir/./queries/query-evaluation-model-in-detail.html: pandoc $book_base/./queries/query-evaluation-model-in-detail.md | $page_tpl $summary_dir/./queries/query-evaluation-model-in-detail.html
  page_ltoc = $summary_dir/./queries/query-evaluation-model-in-detail.html
  title = The Query Evaluation Model in Detail

build $summary_dir/./queries/incremental-compilation.html: ltoc $book_base/./queries/incremental-compilation.md | $summary $xmark
build $out_dir/./queries/incremental-compilation.html: pandoc $book_base/./queries/incremental-compilation.md | $page_tpl $summary_dir/./queries/incremental-compilation.html
  page_ltoc = $summary_dir/./queries/incremental-compilation.html
  title = Incremental compilation

build $summary_dir/./queries/incremental-compilation-in-detail.html: ltoc $book_base/./queries/incremental-compilation-in-detail.md | $summary $xmark
build $out_dir/./queries/incremental-compilation-in-detail.html: pandoc $book_base/./queries/incremental-compilation-in-detail.md | $page_tpl $summary_dir/./queries/incremental-compilation-in-detail.html
  page_ltoc = $summary_dir/./queries/incremental-compilation-in-detail.html
  title = Incremental compilation In Detail

build $summary_dir/./incrcomp-debugging.html: ltoc $book_base/./incrcomp-debugging.md | $summary $xmark
build $out_dir/./incrcomp-debugging.html: pandoc $book_base/./incrcomp-debugging.md | $page_tpl $summary_dir/./incrcomp-debugging.html
  page_ltoc = $summary_dir/./incrcomp-debugging.html
  title = Debugging and Testing

build $summary_dir/./queries/profiling.html: ltoc $book_base/./queries/profiling.md | $summary $xmark
build $out_dir/./queries/profiling.html: pandoc $book_base/./queries/profiling.md | $page_tpl $summary_dir/./queries/profiling.html
  page_ltoc = $summary_dir/./queries/profiling.html
  title = Profiling Queries

build $summary_dir/./salsa.html: ltoc $book_base/./salsa.md | $summary $xmark
build $out_dir/./salsa.html: pandoc $book_base/./salsa.md | $page_tpl $summary_dir/./salsa.html
  page_ltoc = $summary_dir/./salsa.html
  title = Salsa

build $summary_dir/./memory.html: ltoc $book_base/./memory.md | $summary $xmark
build $out_dir/./memory.html: pandoc $book_base/./memory.md | $page_tpl $summary_dir/./memory.html
  page_ltoc = $summary_dir/./memory.html
  title = Memory Management in Rustc

build $summary_dir/./serialization.html: ltoc $book_base/./serialization.md | $summary $xmark
build $out_dir/./serialization.html: pandoc $book_base/./serialization.md | $page_tpl $summary_dir/./serialization.html
  page_ltoc = $summary_dir/./serialization.html
  title = Serialization in Rustc

build $summary_dir/./parallel-rustc.html: ltoc $book_base/./parallel-rustc.md | $summary $xmark
build $out_dir/./parallel-rustc.html: pandoc $book_base/./parallel-rustc.md | $page_tpl $summary_dir/./parallel-rustc.html
  page_ltoc = $summary_dir/./parallel-rustc.html
  title = Parallel Compilation

build $summary_dir/./rustdoc-internals.html: ltoc $book_base/./rustdoc-internals.md | $summary $xmark
build $out_dir/./rustdoc-internals.html: pandoc $book_base/./rustdoc-internals.md | $page_tpl $summary_dir/./rustdoc-internals.html
  page_ltoc = $summary_dir/./rustdoc-internals.html
  title = Rustdoc

build $summary_dir/./part-3-intro.html: ltoc $book_base/./part-3-intro.md | $summary $xmark
build $out_dir/./part-3-intro.html: pandoc $book_base/./part-3-intro.md | $page_tpl $summary_dir/./part-3-intro.html
  page_ltoc = $summary_dir/./part-3-intro.html
  title = Prologue

build $summary_dir/./cli.html: ltoc $book_base/./cli.md | $summary $xmark
build $out_dir/./cli.html: pandoc $book_base/./cli.md | $page_tpl $summary_dir/./cli.html
  page_ltoc = $summary_dir/./cli.html
  title = Command-line arguments

build $summary_dir/./rustc-driver.html: ltoc $book_base/./rustc-driver.md | $summary $xmark
build $out_dir/./rustc-driver.html: pandoc $book_base/./rustc-driver.md | $page_tpl $summary_dir/./rustc-driver.html
  page_ltoc = $summary_dir/./rustc-driver.html
  title = The Rustc Driver and Interface

build $summary_dir/./rustc-driver-interacting-with-the-ast.html: ltoc $book_base/./rustc-driver-interacting-with-the-ast.md | $summary $xmark
build $out_dir/./rustc-driver-interacting-with-the-ast.html: pandoc $book_base/./rustc-driver-interacting-with-the-ast.md | $page_tpl $summary_dir/./rustc-driver-interacting-with-the-ast.html
  page_ltoc = $summary_dir/./rustc-driver-interacting-with-the-ast.html
  title = Ex: Type checking through rustc_interface

build $summary_dir/./rustc-driver-getting-diagnostics.html: ltoc $book_base/./rustc-driver-getting-diagnostics.md | $summary $xmark
build $out_dir/./rustc-driver-getting-diagnostics.html: pandoc $book_base/./rustc-driver-getting-diagnostics.md | $page_tpl $summary_dir/./rustc-driver-getting-diagnostics.html
  page_ltoc = $summary_dir/./rustc-driver-getting-diagnostics.html
  title = Ex: Getting diagnostics through rustc_interface

build $summary_dir/./syntax-intro.html: ltoc $book_base/./syntax-intro.md | $summary $xmark
build $out_dir/./syntax-intro.html: pandoc $book_base/./syntax-intro.md | $page_tpl $summary_dir/./syntax-intro.html
  page_ltoc = $summary_dir/./syntax-intro.html
  title = Syntax and the AST

build $summary_dir/./the-parser.html: ltoc $book_base/./the-parser.md | $summary $xmark
build $out_dir/./the-parser.html: pandoc $book_base/./the-parser.md | $page_tpl $summary_dir/./the-parser.html
  page_ltoc = $summary_dir/./the-parser.html
  title = Lexing and Parsing

build $summary_dir/./macro-expansion.html: ltoc $book_base/./macro-expansion.md | $summary $xmark
build $out_dir/./macro-expansion.html: pandoc $book_base/./macro-expansion.md | $page_tpl $summary_dir/./macro-expansion.html
  page_ltoc = $summary_dir/./macro-expansion.html
  title = Macro expansion

build $summary_dir/./name-resolution.html: ltoc $book_base/./name-resolution.md | $summary $xmark
build $out_dir/./name-resolution.html: pandoc $book_base/./name-resolution.md | $page_tpl $summary_dir/./name-resolution.html
  page_ltoc = $summary_dir/./name-resolution.html
  title = Name resolution

build $summary_dir/./test-implementation.html: ltoc $book_base/./test-implementation.md | $summary $xmark
build $out_dir/./test-implementation.html: pandoc $book_base/./test-implementation.md | $page_tpl $summary_dir/./test-implementation.html
  page_ltoc = $summary_dir/./test-implementation.html
  title = #[test] Implementation

build $summary_dir/./panic-implementation.html: ltoc $book_base/./panic-implementation.md | $summary $xmark
build $out_dir/./panic-implementation.html: pandoc $book_base/./panic-implementation.md | $page_tpl $summary_dir/./panic-implementation.html
  page_ltoc = $summary_dir/./panic-implementation.html
  title = Panic Implementation

build $summary_dir/./ast-validation.html: ltoc $book_base/./ast-validation.md | $summary $xmark
build $out_dir/./ast-validation.html: pandoc $book_base/./ast-validation.md | $page_tpl $summary_dir/./ast-validation.html
  page_ltoc = $summary_dir/./ast-validation.html
  title = AST Validation

build $summary_dir/./feature-gate-ck.html: ltoc $book_base/./feature-gate-ck.md | $summary $xmark
build $out_dir/./feature-gate-ck.html: pandoc $book_base/./feature-gate-ck.md | $page_tpl $summary_dir/./feature-gate-ck.html
  page_ltoc = $summary_dir/./feature-gate-ck.html
  title = Feature Gate Checking

build $summary_dir/./hir.html: ltoc $book_base/./hir.md | $summary $xmark
build $out_dir/./hir.html: pandoc $book_base/./hir.md | $page_tpl $summary_dir/./hir.html
  page_ltoc = $summary_dir/./hir.html
  title = The HIR (High-level IR)

build $summary_dir/./lowering.html: ltoc $book_base/./lowering.md | $summary $xmark
build $out_dir/./lowering.html: pandoc $book_base/./lowering.md | $page_tpl $summary_dir/./lowering.html
  page_ltoc = $summary_dir/./lowering.html
  title = Lowering AST to HIR

build $summary_dir/./hir-debugging.html: ltoc $book_base/./hir-debugging.md | $summary $xmark
build $out_dir/./hir-debugging.html: pandoc $book_base/./hir-debugging.md | $page_tpl $summary_dir/./hir-debugging.html
  page_ltoc = $summary_dir/./hir-debugging.html
  title = Debugging

build $summary_dir/./mir/index.html: ltoc $book_base/./mir/index.md | $summary $xmark
build $out_dir/./mir/index.html: pandoc $book_base/./mir/index.md | $page_tpl $summary_dir/./mir/index.html
  page_ltoc = $summary_dir/./mir/index.html
  title = The MIR (Mid-level IR)

build $summary_dir/./mir/construction.html: ltoc $book_base/./mir/construction.md | $summary $xmark
build $out_dir/./mir/construction.html: pandoc $book_base/./mir/construction.md | $page_tpl $summary_dir/./mir/construction.html
  page_ltoc = $summary_dir/./mir/construction.html
  title = THIR and MIR construction

build $summary_dir/./mir/visitor.html: ltoc $book_base/./mir/visitor.md | $summary $xmark
build $out_dir/./mir/visitor.html: pandoc $book_base/./mir/visitor.md | $page_tpl $summary_dir/./mir/visitor.html
  page_ltoc = $summary_dir/./mir/visitor.html
  title = MIR visitor and traversal

build $summary_dir/./mir/passes.html: ltoc $book_base/./mir/passes.md | $summary $xmark
build $out_dir/./mir/passes.html: pandoc $book_base/./mir/passes.md | $page_tpl $summary_dir/./mir/passes.html
  page_ltoc = $summary_dir/./mir/passes.html
  title = MIR passes: getting the MIR for a function

build $summary_dir/./identifiers.html: ltoc $book_base/./identifiers.md | $summary $xmark
build $out_dir/./identifiers.html: pandoc $book_base/./identifiers.md | $page_tpl $summary_dir/./identifiers.html
  page_ltoc = $summary_dir/./identifiers.html
  title = Identifiers in the Compiler

build $summary_dir/./closure.html: ltoc $book_base/./closure.md | $summary $xmark
build $out_dir/./closure.html: pandoc $book_base/./closure.md | $page_tpl $summary_dir/./closure.html
  page_ltoc = $summary_dir/./closure.html
  title = Closure expansion

build $summary_dir/./part-4-intro.html: ltoc $book_base/./part-4-intro.md | $summary $xmark
build $out_dir/./part-4-intro.html: pandoc $book_base/./part-4-intro.md | $page_tpl $summary_dir/./part-4-intro.html
  page_ltoc = $summary_dir/./part-4-intro.html
  title = Prologue

build $summary_dir/./ty.html: ltoc $book_base/./ty.md | $summary $xmark
build $out_dir/./ty.html: pandoc $book_base/./ty.md | $page_tpl $summary_dir/./ty.html
  page_ltoc = $summary_dir/./ty.html
  title = The ty module: representing types

build $summary_dir/./generics.html: ltoc $book_base/./generics.md | $summary $xmark
build $out_dir/./generics.html: pandoc $book_base/./generics.md | $page_tpl $summary_dir/./generics.html
  page_ltoc = $summary_dir/./generics.html
  title = Generics and substitutions

build $summary_dir/./ty-fold.html: ltoc $book_base/./ty-fold.md | $summary $xmark
build $out_dir/./ty-fold.html: pandoc $book_base/./ty-fold.md | $page_tpl $summary_dir/./ty-fold.html
  page_ltoc = $summary_dir/./ty-fold.html
  title = TypeFolder and TypeFoldable

build $summary_dir/./generic_arguments.html: ltoc $book_base/./generic_arguments.md | $summary $xmark
build $out_dir/./generic_arguments.html: pandoc $book_base/./generic_arguments.md | $page_tpl $summary_dir/./generic_arguments.html
  page_ltoc = $summary_dir/./generic_arguments.html
  title = Generic arguments

build $summary_dir/./type-inference.html: ltoc $book_base/./type-inference.md | $summary $xmark
build $out_dir/./type-inference.html: pandoc $book_base/./type-inference.md | $page_tpl $summary_dir/./type-inference.html
  page_ltoc = $summary_dir/./type-inference.html
  title = Type inference

build $summary_dir/./traits/resolution.html: ltoc $book_base/./traits/resolution.md | $summary $xmark
build $out_dir/./traits/resolution.html: pandoc $book_base/./traits/resolution.md | $page_tpl $summary_dir/./traits/resolution.html
  page_ltoc = $summary_dir/./traits/resolution.html
  title = Trait solving

build $summary_dir/./early-late-bound.html: ltoc $book_base/./early-late-bound.md | $summary $xmark
build $out_dir/./early-late-bound.html: pandoc $book_base/./early-late-bound.md | $page_tpl $summary_dir/./early-late-bound.html
  page_ltoc = $summary_dir/./early-late-bound.html
  title = Early and Late Bound Parameters

build $summary_dir/./traits/hrtb.html: ltoc $book_base/./traits/hrtb.md | $summary $xmark
build $out_dir/./traits/hrtb.html: pandoc $book_base/./traits/hrtb.md | $page_tpl $summary_dir/./traits/hrtb.html
  page_ltoc = $summary_dir/./traits/hrtb.html
  title = Higher-ranked trait bounds

build $summary_dir/./traits/caching.html: ltoc $book_base/./traits/caching.md | $summary $xmark
build $out_dir/./traits/caching.html: pandoc $book_base/./traits/caching.md | $page_tpl $summary_dir/./traits/caching.html
  page_ltoc = $summary_dir/./traits/caching.html
  title = Caching subtleties

build $summary_dir/./traits/specialization.html: ltoc $book_base/./traits/specialization.md | $summary $xmark
build $out_dir/./traits/specialization.html: pandoc $book_base/./traits/specialization.md | $page_tpl $summary_dir/./traits/specialization.html
  page_ltoc = $summary_dir/./traits/specialization.html
  title = Specialization

build $summary_dir/./traits/chalk.html: ltoc $book_base/./traits/chalk.md | $summary $xmark
build $out_dir/./traits/chalk.html: pandoc $book_base/./traits/chalk.md | $page_tpl $summary_dir/./traits/chalk.html
  page_ltoc = $summary_dir/./traits/chalk.html
  title = Chalk-based trait solving

build $summary_dir/./traits/lowering-to-logic.html: ltoc $book_base/./traits/lowering-to-logic.md | $summary $xmark
build $out_dir/./traits/lowering-to-logic.html: pandoc $book_base/./traits/lowering-to-logic.md | $page_tpl $summary_dir/./traits/lowering-to-logic.html
  page_ltoc = $summary_dir/./traits/lowering-to-logic.html
  title = Lowering to logic

build $summary_dir/./traits/goals-and-clauses.html: ltoc $book_base/./traits/goals-and-clauses.md | $summary $xmark
build $out_dir/./traits/goals-and-clauses.html: pandoc $book_base/./traits/goals-and-clauses.md | $page_tpl $summary_dir/./traits/goals-and-clauses.html
  page_ltoc = $summary_dir/./traits/goals-and-clauses.html
  title = Goals and clauses

build $summary_dir/./traits/canonical-queries.html: ltoc $book_base/./traits/canonical-queries.md | $summary $xmark
build $out_dir/./traits/canonical-queries.html: pandoc $book_base/./traits/canonical-queries.md | $page_tpl $summary_dir/./traits/canonical-queries.html
  page_ltoc = $summary_dir/./traits/canonical-queries.html
  title = Canonical queries

build $summary_dir/./traits/lowering-module.html: ltoc $book_base/./traits/lowering-module.md | $summary $xmark
build $out_dir/./traits/lowering-module.html: pandoc $book_base/./traits/lowering-module.md | $page_tpl $summary_dir/./traits/lowering-module.html
  page_ltoc = $summary_dir/./traits/lowering-module.html
  title = Lowering module in rustc

build $summary_dir/./type-checking.html: ltoc $book_base/./type-checking.md | $summary $xmark
build $out_dir/./type-checking.html: pandoc $book_base/./type-checking.md | $page_tpl $summary_dir/./type-checking.html
  page_ltoc = $summary_dir/./type-checking.html
  title = Type checking

build $summary_dir/./method-lookup.html: ltoc $book_base/./method-lookup.md | $summary $xmark
build $out_dir/./method-lookup.html: pandoc $book_base/./method-lookup.md | $page_tpl $summary_dir/./method-lookup.html
  page_ltoc = $summary_dir/./method-lookup.html
  title = Method Lookup

build $summary_dir/./variance.html: ltoc $book_base/./variance.md | $summary $xmark
build $out_dir/./variance.html: pandoc $book_base/./variance.md | $page_tpl $summary_dir/./variance.html
  page_ltoc = $summary_dir/./variance.html
  title = Variance

build $summary_dir/./opaque-types-type-alias-impl-trait.html: ltoc $book_base/./opaque-types-type-alias-impl-trait.md | $summary $xmark
build $out_dir/./opaque-types-type-alias-impl-trait.html: pandoc $book_base/./opaque-types-type-alias-impl-trait.md | $page_tpl $summary_dir/./opaque-types-type-alias-impl-trait.html
  page_ltoc = $summary_dir/./opaque-types-type-alias-impl-trait.html
  title = Opaque Types

build $summary_dir/./pat-exhaustive-checking.html: ltoc $book_base/./pat-exhaustive-checking.md | $summary $xmark
build $out_dir/./pat-exhaustive-checking.html: pandoc $book_base/./pat-exhaustive-checking.md | $page_tpl $summary_dir/./pat-exhaustive-checking.html
  page_ltoc = $summary_dir/./pat-exhaustive-checking.html
  title = Pattern and Exhaustiveness Checking

build $summary_dir/./mir/dataflow.html: ltoc $book_base/./mir/dataflow.md | $summary $xmark
build $out_dir/./mir/dataflow.html: pandoc $book_base/./mir/dataflow.md | $page_tpl $summary_dir/./mir/dataflow.html
  page_ltoc = $summary_dir/./mir/dataflow.html
  title = MIR dataflow

build $summary_dir/./borrow_check.html: ltoc $book_base/./borrow_check.md | $summary $xmark
build $out_dir/./borrow_check.html: pandoc $book_base/./borrow_check.md | $page_tpl $summary_dir/./borrow_check.html
  page_ltoc = $summary_dir/./borrow_check.html
  title = The borrow checker

build $summary_dir/./borrow_check/moves_and_initialization.html: ltoc $book_base/./borrow_check/moves_and_initialization.md | $summary $xmark
build $out_dir/./borrow_check/moves_and_initialization.html: pandoc $book_base/./borrow_check/moves_and_initialization.md | $page_tpl $summary_dir/./borrow_check/moves_and_initialization.html
  page_ltoc = $summary_dir/./borrow_check/moves_and_initialization.html
  title = Tracking moves and initialization

build $summary_dir/./borrow_check/moves_and_initialization/move_paths.html: ltoc $book_base/./borrow_check/moves_and_initialization/move_paths.md | $summary $xmark
build $out_dir/./borrow_check/moves_and_initialization/move_paths.html: pandoc $book_base/./borrow_check/moves_and_initialization/move_paths.md | $page_tpl $summary_dir/./borrow_check/moves_and_initialization/move_paths.html
  page_ltoc = $summary_dir/./borrow_check/moves_and_initialization/move_paths.html
  title = Move paths

build $summary_dir/./borrow_check/type_check.html: ltoc $book_base/./borrow_check/type_check.md | $summary $xmark
build $out_dir/./borrow_check/type_check.html: pandoc $book_base/./borrow_check/type_check.md | $page_tpl $summary_dir/./borrow_check/type_check.html
  page_ltoc = $summary_dir/./borrow_check/type_check.html
  title = MIR type checker

build $summary_dir/./borrow_check/region_inference.html: ltoc $book_base/./borrow_check/region_inference.md | $summary $xmark
build $out_dir/./borrow_check/region_inference.html: pandoc $book_base/./borrow_check/region_inference.md | $page_tpl $summary_dir/./borrow_check/region_inference.html
  page_ltoc = $summary_dir/./borrow_check/region_inference.html
  title = Region inference

build $summary_dir/./borrow_check/region_inference/constraint_propagation.html: ltoc $book_base/./borrow_check/region_inference/constraint_propagation.md | $summary $xmark
build $out_dir/./borrow_check/region_inference/constraint_propagation.html: pandoc $book_base/./borrow_check/region_inference/constraint_propagation.md | $page_tpl $summary_dir/./borrow_check/region_inference/constraint_propagation.html
  page_ltoc = $summary_dir/./borrow_check/region_inference/constraint_propagation.html
  title = Constraint propagation

build $summary_dir/./borrow_check/region_inference/lifetime_parameters.html: ltoc $book_base/./borrow_check/region_inference/lifetime_parameters.md | $summary $xmark
build $out_dir/./borrow_check/region_inference/lifetime_parameters.html: pandoc $book_base/./borrow_check/region_inference/lifetime_parameters.md | $page_tpl $summary_dir/./borrow_check/region_inference/lifetime_parameters.html
  page_ltoc = $summary_dir/./borrow_check/region_inference/lifetime_parameters.html
  title = Lifetime parameters

build $summary_dir/./borrow_check/region_inference/member_constraints.html: ltoc $book_base/./borrow_check/region_inference/member_constraints.md | $summary $xmark
build $out_dir/./borrow_check/region_inference/member_constraints.html: pandoc $book_base/./borrow_check/region_inference/member_constraints.md | $page_tpl $summary_dir/./borrow_check/region_inference/member_constraints.html
  page_ltoc = $summary_dir/./borrow_check/region_inference/member_constraints.html
  title = Member constraints

build $summary_dir/./borrow_check/region_inference/placeholders_and_universes.html: ltoc $book_base/./borrow_check/region_inference/placeholders_and_universes.md | $summary $xmark
build $out_dir/./borrow_check/region_inference/placeholders_and_universes.html: pandoc $book_base/./borrow_check/region_inference/placeholders_and_universes.md | $page_tpl $summary_dir/./borrow_check/region_inference/placeholders_and_universes.html
  page_ltoc = $summary_dir/./borrow_check/region_inference/placeholders_and_universes.html
  title = Placeholders and universes

build $summary_dir/./borrow_check/region_inference/closure_constraints.html: ltoc $book_base/./borrow_check/region_inference/closure_constraints.md | $summary $xmark
build $out_dir/./borrow_check/region_inference/closure_constraints.html: pandoc $book_base/./borrow_check/region_inference/closure_constraints.md | $page_tpl $summary_dir/./borrow_check/region_inference/closure_constraints.html
  page_ltoc = $summary_dir/./borrow_check/region_inference/closure_constraints.html
  title = Closure constraints

build $summary_dir/./borrow_check/region_inference/error_reporting.html: ltoc $book_base/./borrow_check/region_inference/error_reporting.md | $summary $xmark
build $out_dir/./borrow_check/region_inference/error_reporting.html: pandoc $book_base/./borrow_check/region_inference/error_reporting.md | $page_tpl $summary_dir/./borrow_check/region_inference/error_reporting.html
  page_ltoc = $summary_dir/./borrow_check/region_inference/error_reporting.html
  title = Error reporting

build $summary_dir/./borrow_check/two_phase_borrows.html: ltoc $book_base/./borrow_check/two_phase_borrows.md | $summary $xmark
build $out_dir/./borrow_check/two_phase_borrows.html: pandoc $book_base/./borrow_check/two_phase_borrows.md | $page_tpl $summary_dir/./borrow_check/two_phase_borrows.html
  page_ltoc = $summary_dir/./borrow_check/two_phase_borrows.html
  title = Two-phase-borrows

build $summary_dir/./param_env.html: ltoc $book_base/./param_env.md | $summary $xmark
build $out_dir/./param_env.html: pandoc $book_base/./param_env.md | $page_tpl $summary_dir/./param_env.html
  page_ltoc = $summary_dir/./param_env.html
  title = Parameter Environments

build $summary_dir/diagnostics.html: ltoc $book_base/diagnostics.md | $summary $xmark
build $out_dir/diagnostics.html: pandoc $book_base/diagnostics.md | $page_tpl $summary_dir/diagnostics.html
  page_ltoc = $summary_dir/diagnostics.html
  title = Errors and Lints

build $summary_dir/./diagnostics/sessiondiagnostic.html: ltoc $book_base/./diagnostics/sessiondiagnostic.md | $summary $xmark
build $out_dir/./diagnostics/sessiondiagnostic.html: pandoc $book_base/./diagnostics/sessiondiagnostic.md | $page_tpl $summary_dir/./diagnostics/sessiondiagnostic.html
  page_ltoc = $summary_dir/./diagnostics/sessiondiagnostic.html
  title = Creating Errors With SessionDiagnostic

build $summary_dir/./diagnostics/lintstore.html: ltoc $book_base/./diagnostics/lintstore.md | $summary $xmark
build $out_dir/./diagnostics/lintstore.html: pandoc $book_base/./diagnostics/lintstore.md | $page_tpl $summary_dir/./diagnostics/lintstore.html
  page_ltoc = $summary_dir/./diagnostics/lintstore.html
  title = LintStore

build $summary_dir/./diagnostics/diagnostic-codes.html: ltoc $book_base/./diagnostics/diagnostic-codes.md | $summary $xmark
build $out_dir/./diagnostics/diagnostic-codes.html: pandoc $book_base/./diagnostics/diagnostic-codes.md | $page_tpl $summary_dir/./diagnostics/diagnostic-codes.html
  page_ltoc = $summary_dir/./diagnostics/diagnostic-codes.html
  title = Diagnostic Codes

build $summary_dir/./part-5-intro.html: ltoc $book_base/./part-5-intro.md | $summary $xmark
build $out_dir/./part-5-intro.html: pandoc $book_base/./part-5-intro.md | $page_tpl $summary_dir/./part-5-intro.html
  page_ltoc = $summary_dir/./part-5-intro.html
  title = Prologue

build $summary_dir/./mir/optimizations.html: ltoc $book_base/./mir/optimizations.md | $summary $xmark
build $out_dir/./mir/optimizations.html: pandoc $book_base/./mir/optimizations.md | $page_tpl $summary_dir/./mir/optimizations.html
  page_ltoc = $summary_dir/./mir/optimizations.html
  title = MIR optimizations

build $summary_dir/./mir/debugging.html: ltoc $book_base/./mir/debugging.md | $summary $xmark
build $out_dir/./mir/debugging.html: pandoc $book_base/./mir/debugging.md | $page_tpl $summary_dir/./mir/debugging.html
  page_ltoc = $summary_dir/./mir/debugging.html
  title = Debugging

build $summary_dir/./const-eval.html: ltoc $book_base/./const-eval.md | $summary $xmark
build $out_dir/./const-eval.html: pandoc $book_base/./const-eval.md | $page_tpl $summary_dir/./const-eval.html
  page_ltoc = $summary_dir/./const-eval.html
  title = Constant evaluation

build $summary_dir/./miri.html: ltoc $book_base/./miri.md | $summary $xmark
build $out_dir/./miri.html: pandoc $book_base/./miri.md | $page_tpl $summary_dir/./miri.html
  page_ltoc = $summary_dir/./miri.html
  title = miri const evaluator

build $summary_dir/./backend/monomorph.html: ltoc $book_base/./backend/monomorph.md | $summary $xmark
build $out_dir/./backend/monomorph.html: pandoc $book_base/./backend/monomorph.md | $page_tpl $summary_dir/./backend/monomorph.html
  page_ltoc = $summary_dir/./backend/monomorph.html
  title = Monomorphization

build $summary_dir/./backend/lowering-mir.html: ltoc $book_base/./backend/lowering-mir.md | $summary $xmark
build $out_dir/./backend/lowering-mir.html: pandoc $book_base/./backend/lowering-mir.md | $page_tpl $summary_dir/./backend/lowering-mir.html
  page_ltoc = $summary_dir/./backend/lowering-mir.html
  title = Lowering MIR

build $summary_dir/./backend/codegen.html: ltoc $book_base/./backend/codegen.md | $summary $xmark
build $out_dir/./backend/codegen.html: pandoc $book_base/./backend/codegen.md | $page_tpl $summary_dir/./backend/codegen.html
  page_ltoc = $summary_dir/./backend/codegen.html
  title = Code Generation

build $summary_dir/./backend/updating-llvm.html: ltoc $book_base/./backend/updating-llvm.md | $summary $xmark
build $out_dir/./backend/updating-llvm.html: pandoc $book_base/./backend/updating-llvm.md | $page_tpl $summary_dir/./backend/updating-llvm.html
  page_ltoc = $summary_dir/./backend/updating-llvm.html
  title = Updating LLVM

build $summary_dir/./backend/debugging.html: ltoc $book_base/./backend/debugging.md | $summary $xmark
build $out_dir/./backend/debugging.html: pandoc $book_base/./backend/debugging.md | $page_tpl $summary_dir/./backend/debugging.html
  page_ltoc = $summary_dir/./backend/debugging.html
  title = Debugging LLVM

build $summary_dir/./backend/backend-agnostic.html: ltoc $book_base/./backend/backend-agnostic.md | $summary $xmark
build $out_dir/./backend/backend-agnostic.html: pandoc $book_base/./backend/backend-agnostic.md | $page_tpl $summary_dir/./backend/backend-agnostic.html
  page_ltoc = $summary_dir/./backend/backend-agnostic.html
  title = Backend Agnostic Codegen

build $summary_dir/./backend/implicit-caller-location.html: ltoc $book_base/./backend/implicit-caller-location.md | $summary $xmark
build $out_dir/./backend/implicit-caller-location.html: pandoc $book_base/./backend/implicit-caller-location.md | $page_tpl $summary_dir/./backend/implicit-caller-location.html
  page_ltoc = $summary_dir/./backend/implicit-caller-location.html
  title = Implicit Caller Location

build $summary_dir/./profile-guided-optimization.html: ltoc $book_base/./profile-guided-optimization.md | $summary $xmark
build $out_dir/./profile-guided-optimization.html: pandoc $book_base/./profile-guided-optimization.md | $page_tpl $summary_dir/./profile-guided-optimization.html
  page_ltoc = $summary_dir/./profile-guided-optimization.html
  title = Profile-guided Optimization

build $summary_dir/./llvm-coverage-instrumentation.html: ltoc $book_base/./llvm-coverage-instrumentation.md | $summary $xmark
build $out_dir/./llvm-coverage-instrumentation.html: pandoc $book_base/./llvm-coverage-instrumentation.md | $page_tpl $summary_dir/./llvm-coverage-instrumentation.html
  page_ltoc = $summary_dir/./llvm-coverage-instrumentation.html
  title = LLVM Source-Based Code Coverage

build $summary_dir/./sanitizers.html: ltoc $book_base/./sanitizers.md | $summary $xmark
build $out_dir/./sanitizers.html: pandoc $book_base/./sanitizers.md | $page_tpl $summary_dir/./sanitizers.html
  page_ltoc = $summary_dir/./sanitizers.html
  title = Sanitizers Support

build $summary_dir/./debugging-support-in-rustc.html: ltoc $book_base/./debugging-support-in-rustc.md | $summary $xmark
build $out_dir/./debugging-support-in-rustc.html: pandoc $book_base/./debugging-support-in-rustc.md | $page_tpl $summary_dir/./debugging-support-in-rustc.html
  page_ltoc = $summary_dir/./debugging-support-in-rustc.html
  title = Debugging Support in the Rust Compiler

build $summary_dir/./appendix/background.html: ltoc $book_base/./appendix/background.md | $summary $xmark
build $out_dir/./appendix/background.html: pandoc $book_base/./appendix/background.md | $page_tpl $summary_dir/./appendix/background.html
  page_ltoc = $summary_dir/./appendix/background.html
  title = Appendix A: Background topics

build $summary_dir/./appendix/glossary.html: ltoc $book_base/./appendix/glossary.md | $summary $xmark
build $out_dir/./appendix/glossary.html: pandoc $book_base/./appendix/glossary.md | $page_tpl $summary_dir/./appendix/glossary.html
  page_ltoc = $summary_dir/./appendix/glossary.html
  title = Appendix B: Glossary

build $summary_dir/./appendix/code-index.html: ltoc $book_base/./appendix/code-index.md | $summary $xmark
build $out_dir/./appendix/code-index.html: pandoc $book_base/./appendix/code-index.md | $page_tpl $summary_dir/./appendix/code-index.html
  page_ltoc = $summary_dir/./appendix/code-index.html
  title = Appendix C: Code Index

build $summary_dir/./appendix/compiler-lecture.html: ltoc $book_base/./appendix/compiler-lecture.md | $summary $xmark
build $out_dir/./appendix/compiler-lecture.html: pandoc $book_base/./appendix/compiler-lecture.md | $page_tpl $summary_dir/./appendix/compiler-lecture.html
  page_ltoc = $summary_dir/./appendix/compiler-lecture.html
  title = Appendix D: Compiler Lecture Series

build $summary_dir/./appendix/bibliography.html: ltoc $book_base/./appendix/bibliography.md | $summary $xmark
build $out_dir/./appendix/bibliography.html: pandoc $book_base/./appendix/bibliography.md | $page_tpl $summary_dir/./appendix/bibliography.html
  page_ltoc = $summary_dir/./appendix/bibliography.html
  title = Appendix E: Bibliography

build $summary_dir/./appendix/humorust.html: ltoc $book_base/./appendix/humorust.md | $summary $xmark
build $out_dir/./appendix/humorust.html: pandoc $book_base/./appendix/humorust.md | $page_tpl $summary_dir/./appendix/humorust.html
  page_ltoc = $summary_dir/./appendix/humorust.html
  title = Appendix Z: HumorRust


